simulation/qsim/PC.msim.vcd
$comment
	File created using the following command:
		vcd file PC.msim.vcd -direction
$end
$date
	Mon Mar 09 16:43:59 2026
$end
$version
	ModelSim Version 10.5b
$end
$timescale
	1ps
$end

$scope module pc_vhd_vec_tst $end
$var wire 1 ! clk $end
$var wire 1 " in_v [15] $end
$var wire 1 # in_v [14] $end
$var wire 1 $ in_v [13] $end
$var wire 1 % in_v [12] $end
$var wire 1 & in_v [11] $end
$var wire 1 ' in_v [10] $end
$var wire 1 ( in_v [9] $end
$var wire 1 ) in_v [8] $end
$var wire 1 * in_v [7] $end
$var wire 1 + in_v [6] $end
$var wire 1 , in_v [5] $end
$var wire 1 - in_v [4] $end
$var wire 1 . in_v [3] $end
$var wire 1 / in_v [2] $end
$var wire 1 0 in_v [1] $end
$var wire 1 1 in_v [0] $end
$var wire 1 2 inc $end
$var wire 1 3 load $end
$var wire 1 4 out_v [15] $end
$var wire 1 5 out_v [14] $end
$var wire 1 6 out_v [13] $end
$var wire 1 7 out_v [12] $end
$var wire 1 8 out_v [11] $end
$var wire 1 9 out_v [10] $end
$var wire 1 : out_v [9] $end
$var wire 1 ; out_v [8] $end
$var wire 1 < out_v [7] $end
$var wire 1 = out_v [6] $end
$var wire 1 > out_v [5] $end
$var wire 1 ? out_v [4] $end
$var wire 1 @ out_v [3] $end
$var wire 1 A out_v [2] $end
$var wire 1 B out_v [1] $end
$var wire 1 C out_v [0] $end
$var wire 1 D reset $end

$scope module i1 $end
$var wire 1 E gnd $end
$var wire 1 F vcc $end
$var wire 1 G unknown $end
$var wire 1 H devoe $end
$var wire 1 I devclrn $end
$var wire 1 J devpor $end
$var wire 1 K ww_devoe $end
$var wire 1 L ww_devclrn $end
$var wire 1 M ww_devpor $end
$var wire 1 N ww_clk $end
$var wire 1 O ww_in_v [15] $end
$var wire 1 P ww_in_v [14] $end
$var wire 1 Q ww_in_v [13] $end
$var wire 1 R ww_in_v [12] $end
$var wire 1 S ww_in_v [11] $end
$var wire 1 T ww_in_v [10] $end
$var wire 1 U ww_in_v [9] $end
$var wire 1 V ww_in_v [8] $end
$var wire 1 W ww_in_v [7] $end
$var wire 1 X ww_in_v [6] $end
$var wire 1 Y ww_in_v [5] $end
$var wire 1 Z ww_in_v [4] $end
$var wire 1 [ ww_in_v [3] $end
$var wire 1 \ ww_in_v [2] $end
$var wire 1 ] ww_in_v [1] $end
$var wire 1 ^ ww_in_v [0] $end
$var wire 1 _ ww_load $end
$var wire 1 ` ww_inc $end
$var wire 1 a ww_reset $end
$var wire 1 b ww_out_v [15] $end
$var wire 1 c ww_out_v [14] $end
$var wire 1 d ww_out_v [13] $end
$var wire 1 e ww_out_v [12] $end
$var wire 1 f ww_out_v [11] $end
$var wire 1 g ww_out_v [10] $end
$var wire 1 h ww_out_v [9] $end
$var wire 1 i ww_out_v [8] $end
$var wire 1 j ww_out_v [7] $end
$var wire 1 k ww_out_v [6] $end
$var wire 1 l ww_out_v [5] $end
$var wire 1 m ww_out_v [4] $end
$var wire 1 n ww_out_v [3] $end
$var wire 1 o ww_out_v [2] $end
$var wire 1 p ww_out_v [1] $end
$var wire 1 q ww_out_v [0] $end
$var wire 1 r \out_v[0]~output_o\ $end
$var wire 1 s \out_v[1]~output_o\ $end
$var wire 1 t \out_v[2]~output_o\ $end
$var wire 1 u \out_v[3]~output_o\ $end
$var wire 1 v \out_v[4]~output_o\ $end
$var wire 1 w \out_v[5]~output_o\ $end
$var wire 1 x \out_v[6]~output_o\ $end
$var wire 1 y \out_v[7]~output_o\ $end
$var wire 1 z \out_v[8]~output_o\ $end
$var wire 1 { \out_v[9]~output_o\ $end
$var wire 1 | \out_v[10]~output_o\ $end
$var wire 1 } \out_v[11]~output_o\ $end
$var wire 1 ~ \out_v[12]~output_o\ $end
$var wire 1 !! \out_v[13]~output_o\ $end
$var wire 1 "! \out_v[14]~output_o\ $end
$var wire 1 #! \out_v[15]~output_o\ $end
$var wire 1 $! \clk~input_o\ $end
$var wire 1 %! \Add0~1_sumout\ $end
$var wire 1 &! \in_v[0]~input_o\ $end
$var wire 1 '! \reset~input_o\ $end
$var wire 1 (! \load~input_o\ $end
$var wire 1 )! \inc~input_o\ $end
$var wire 1 *! \current_val[0]~0_combout\ $end
$var wire 1 +! \Add0~2\ $end
$var wire 1 ,! \Add0~5_sumout\ $end
$var wire 1 -! \in_v[1]~input_o\ $end
$var wire 1 .! \Add0~6\ $end
$var wire 1 /! \Add0~9_sumout\ $end
$var wire 1 0! \in_v[2]~input_o\ $end
$var wire 1 1! \Add0~10\ $end
$var wire 1 2! \Add0~13_sumout\ $end
$var wire 1 3! \in_v[3]~input_o\ $end
$var wire 1 4! \Add0~14\ $end
$var wire 1 5! \Add0~17_sumout\ $end
$var wire 1 6! \in_v[4]~input_o\ $end
$var wire 1 7! \Add0~18\ $end
$var wire 1 8! \Add0~21_sumout\ $end
$var wire 1 9! \in_v[5]~input_o\ $end
$var wire 1 :! \Add0~22\ $end
$var wire 1 ;! \Add0~25_sumout\ $end
$var wire 1 <! \in_v[6]~input_o\ $end
$var wire 1 =! \Add0~26\ $end
$var wire 1 >! \Add0~29_sumout\ $end
$var wire 1 ?! \in_v[7]~input_o\ $end
$var wire 1 @! \Add0~30\ $end
$var wire 1 A! \Add0~33_sumout\ $end
$var wire 1 B! \in_v[8]~input_o\ $end
$var wire 1 C! \Add0~34\ $end
$var wire 1 D! \Add0~37_sumout\ $end
$var wire 1 E! \in_v[9]~input_o\ $end
$var wire 1 F! \Add0~38\ $end
$var wire 1 G! \Add0~41_sumout\ $end
$var wire 1 H! \in_v[10]~input_o\ $end
$var wire 1 I! \Add0~42\ $end
$var wire 1 J! \Add0~45_sumout\ $end
$var wire 1 K! \in_v[11]~input_o\ $end
$var wire 1 L! \Add0~46\ $end
$var wire 1 M! \Add0~49_sumout\ $end
$var wire 1 N! \in_v[12]~input_o\ $end
$var wire 1 O! \Add0~50\ $end
$var wire 1 P! \Add0~53_sumout\ $end
$var wire 1 Q! \in_v[13]~input_o\ $end
$var wire 1 R! \Add0~54\ $end
$var wire 1 S! \Add0~57_sumout\ $end
$var wire 1 T! \in_v[14]~input_o\ $end
$var wire 1 U! \Add0~58\ $end
$var wire 1 V! \Add0~61_sumout\ $end
$var wire 1 W! \in_v[15]~input_o\ $end
$var wire 1 X! current_val [15] $end
$var wire 1 Y! current_val [14] $end
$var wire 1 Z! current_val [13] $end
$var wire 1 [! current_val [12] $end
$var wire 1 \! current_val [11] $end
$var wire 1 ]! current_val [10] $end
$var wire 1 ^! current_val [9] $end
$var wire 1 _! current_val [8] $end
$var wire 1 `! current_val [7] $end
$var wire 1 a! current_val [6] $end
$var wire 1 b! current_val [5] $end
$var wire 1 c! current_val [4] $end
$var wire 1 d! current_val [3] $end
$var wire 1 e! current_val [2] $end
$var wire 1 f! current_val [1] $end
$var wire 1 g! current_val [0] $end
$var wire 1 h! ALT_INV_current_val [15] $end
$var wire 1 i! ALT_INV_current_val [14] $end
$var wire 1 j! ALT_INV_current_val [13] $end
$var wire 1 k! ALT_INV_current_val [12] $end
$var wire 1 l! ALT_INV_current_val [11] $end
$var wire 1 m! ALT_INV_current_val [10] $end
$var wire 1 n! ALT_INV_current_val [9] $end
$var wire 1 o! ALT_INV_current_val [8] $end
$var wire 1 p! ALT_INV_current_val [7] $end
$var wire 1 q! ALT_INV_current_val [6] $end
$var wire 1 r! ALT_INV_current_val [5] $end
$var wire 1 s! ALT_INV_current_val [4] $end
$var wire 1 t! ALT_INV_current_val [3] $end
$var wire 1 u! ALT_INV_current_val [2] $end
$var wire 1 v! ALT_INV_current_val [1] $end
$var wire 1 w! ALT_INV_current_val [0] $end
$var wire 1 x! \ALT_INV_inc~input_o\ $end
$var wire 1 y! \ALT_INV_load~input_o\ $end
$var wire 1 z! \ALT_INV_reset~input_o\ $end
$upscope $end
$upscope $end
$enddefinitions $end
#0
$dumpvars
0!
12
03
1D
0E
1F
xG
1H
1I
1J
1K
1L
1M
0N
0_
1`
1a
0r
0s
0t
0u
0v
0w
0x
0y
0z
0{
0|
0}
0~
0!!
0"!
0#!
0$!
1%!
0&!
1'!
0(!
1)!
1*!
0+!
0,!
0-!
0.!
0/!
00!
01!
02!
03!
04!
05!
06!
07!
08!
09!
0:!
0;!
0<!
0=!
0>!
0?!
0@!
0A!
0B!
0C!
0D!
0E!
0F!
0G!
0H!
0I!
0J!
0K!
0L!
0M!
0N!
0O!
0P!
0Q!
0R!
0S!
0T!
0U!
0V!
0W!
0x!
1y!
0z!
0"
0#
0$
0%
0&
0'
0(
0)
0*
0+
0,
0-
0.
0/
00
01
0O
0P
0Q
0R
0S
0T
0U
0V
0W
0X
0Y
0Z
0[
0\
0]
0^
0b
0c
0d
0e
0f
0g
0h
0i
0j
0k
0l
0m
0n
0o
0p
0q
0X!
0Y!
0Z!
0[!
0\!
0]!
0^!
0_!
0`!
0a!
0b!
0c!
0d!
0e!
0f!
0g!
1h!
1i!
1j!
1k!
1l!
1m!
1n!
1o!
1p!
1q!
1r!
1s!
1t!
1u!
1v!
1w!
04
05
06
07
08
09
0:
0;
0<
0=
0>
0?
0@
0A
0B
0C
$end
#25000
1!
1N
1$!
#50000
0!
0D
0N
0a
0'!
0$!
1z!
#75000
1!
1N
1$!
1g!
0w!
0%!
1+!
1r
1,!
1q
1C
#100000
0!
0N
0$!
#125000
1!
1N
1$!
0g!
1f!
0v!
1w!
1%!
0+!
0,!
1.!
1s
0r
1/!
1,!
0.!
1p
0q
0/!
0C
1B
#150000
0!
0N
0$!
#175000
1!
1N
1$!
1g!
0w!
0%!
1+!
1r
0,!
1.!
1q
1/!
1C
#200000
0!
0N
0$!
#225000
1!
1N
1$!
0g!
0f!
1e!
0u!
1v!
1w!
1%!
0+!
1,!
0.!
0/!
11!
1t
0s
0r
12!
1/!
01!
0,!
1o
0p
0q
02!
0C
0B
1A
#250000
0!
13
0N
1_
1(!
0$!
0y!
#275000
1!
1N
1$!
0e!
1u!
0/!
0t
0o
0A
#300000
0!
03
0N
0_
0(!
0$!
1y!
#325000
1!
1N
1$!
1g!
0w!
0%!
1+!
1r
1,!
1q
1C
#350000
0!
0N
0$!
#375000
1!
1N
1$!
0g!
1f!
0v!
1w!
1%!
0+!
0,!
1.!
1s
0r
1/!
1,!
0.!
1p
0q
0/!
0C
1B
#400000
0!
0N
0$!
#425000
1!
1N
1$!
1g!
0w!
0%!
1+!
1r
0,!
1.!
1q
1/!
1C
#450000
0!
0N
0$!
#475000
1!
1N
1$!
0g!
0f!
1e!
0u!
1v!
1w!
1%!
0+!
1,!
0.!
0/!
11!
1t
0s
0r
12!
1/!
01!
0,!
1o
0p
0q
02!
0C
0B
1A
#500000
0!
0N
0$!
#525000
1!
1N
1$!
1g!
0w!
0%!
1+!
1r
1,!
1q
1C
#550000
0!
0N
0$!
#575000
1!
1N
1$!
0g!
1f!
0v!
1w!
1%!
0+!
0,!
1.!
1s
0r
0/!
11!
1,!
0.!
1p
0q
1/!
01!
12!
0C
1B
02!
#600000
0!
0N
0$!
#625000
1!
1N
1$!
1g!
0w!
0%!
1+!
1r
0,!
1.!
1q
0/!
11!
1C
12!
#650000
0!
0N
0$!
#675000
1!
1N
1$!
0g!
0f!
0e!
1d!
0t!
1u!
1v!
1w!
1%!
0+!
1,!
0.!
1/!
01!
02!
14!
1u
0t
0s
0r
15!
12!
04!
0/!
0,!
1n
0o
0p
0q
05!
0C
0B
0A
1@
#700000
0!
0N
0$!
#725000
1!
1N
1$!
1g!
0w!
0%!
1+!
1r
1,!
1q
1C
#750000
0!
0N
0$!
#775000
1!
1N
1$!
0g!
1f!
0v!
1w!
1%!
0+!
0,!
1.!
1s
0r
1/!
1,!
0.!
1p
0q
0/!
0C
1B
#800000
0!
0N
0$!
#825000
1!
1N
1$!
1g!
0w!
0%!
1+!
1r
0,!
1.!
1q
1/!
1C
#850000
0!
0N
0$!
#875000
1!
1N
1$!
0g!
0f!
1e!
0u!
1v!
1w!
1%!
0+!
1,!
0.!
0/!
11!
1t
0s
0r
02!
14!
1/!
01!
0,!
1o
0p
0q
12!
04!
15!
0C
0B
1A
05!
#900000
0!
0N
0$!
#925000
1!
1N
1$!
1g!
0w!
0%!
1+!
1r
1,!
1q
1C
#950000
0!
0N
0$!
#975000
1!
1N
1$!
0g!
1f!
0v!
1w!
1%!
0+!
0,!
1.!
1s
0r
0/!
11!
1,!
0.!
1p
0q
1/!
01!
02!
14!
0C
1B
15!
12!
04!
05!
